% Point List in IdXYZ Format created by Tsunami
            Point.001     0.000007     2.122871     0.879855
            Point.002     0.905022     1.877979     0.875809
            Point.003     2.403806    -1.276692     0.844213
            Point.004    -0.659031    -1.173726     0.245880
            Point.005    -1.034864    -1.010230     0.264591
