% LHCb network 2014 (AT401)
%                                                     Zsu
%            ^   Yphys                               ^
%            l                                       l    ^  Xsu          
%  C-side    l     A-side                            l   /                
%  (Cryo)    l     (Lift)                 C-side     l  /    A-side             
%            l                                       l /                    
%         IP +-----------> Xphys      Ysu <----------+                   
%           /                                                                    
%          /                                                                      
%         /                                                                       
%        V  Zphys                                                                        
% 
00A00-0P        1.66599     -0.88108      0.37529
00A03-0P        0.62746     -2.50049      0.24238
00C03+1P        1.66493      2.55307      0.80620
01A02-0S       -1.07005     -2.47777     -0.44641
01A03+1P       -0.90106     -2.63517      1.00786
01A04-1P       -0.90942     -3.68612     -0.62944
01A13-0S       -1.17118    -13.43234      0.22093
01A15+1T       -0.58824    -15.37154      0.95154
01A15-0S       -1.14707    -14.93207      0.36339
01C02+2P        1.64008      2.10797      2.19841
01C02-0L       -1.05817      2.46540     -0.44521
01C02-0S       -0.69497      2.07899     -0.42850
01C03+1P       -0.90859      2.64609      0.99661
01C05-1T       -0.92305      5.85987     -1.11821
01C06-1T       -0.91197      5.96531     -1.07529
03A02+8C       -3.22972     -2.29617      8.06301
03A04-6T       -2.98549     -3.90391     -6.15922
03A07+8C       -3.22492     -7.26986      8.07002
03A08-5S       -3.03202     -7.68454     -5.02658
03A10+9P       -3.10952    -10.01482      8.51782
03A24-4P       -2.86415    -24.43390     -4.13796
03B00+9P       -3.11697     -0.04128      8.52291
03C02+8C       -3.22734      2.26560      8.11114
03C06-5S       -3.00053      6.48668     -4.94595
03C07+8C       -3.21739      7.28189      8.10136
03C10+9P       -3.10732      9.95552      8.52630
04A03-0P       -3.99116     -3.17184      0.01354
04A23+1P       -4.56968    -23.32306      1.22982
04A23-3P       -4.75804    -23.35413     -3.89085
04C03-0P       -3.99169      3.17350      0.01083
04C05-0P       -3.61408      5.25785     -0.63157
06A01-1S       -6.33637     -0.94662     -0.99744
06C01-1S       -6.33434      0.80485     -0.99721
07A00-4T       -7.17377     -0.15928     -3.80957
07A03-4P       -7.78938     -2.97346     -4.49292
07A04-0P       -6.68698     -3.86746      0.02086
07A06-6R       -7.42023     -5.99970     -6.26325
07A09-6P       -7.47462     -9.37920     -6.15662
07C02-4T       -7.18013      1.90070     -3.80965
07C04-0P       -6.68482      3.86830      0.02065
07C04-4P       -7.78918      4.52996     -4.67117
07C06-6R       -7.41960      6.00082     -6.26095
08A20-6P       -8.54918    -20.83376     -6.18836
08A23+1S       -7.61971    -22.86624      0.84653
08A23-0S       -7.61375    -22.85896     -0.13174
08C08-6T       -8.89924      8.06603     -6.21164
09A02-3T       -9.68000     -1.64745     -3.73004
09A03-4T       -9.55718     -3.19957     -3.72708
09A13-6R       -8.60413    -12.82693     -6.26525
09A23+1S       -9.03787    -22.88387      0.86728
09A23-0S       -9.03206    -22.86809     -0.13682
09C02-4T       -9.56541      1.67097     -3.72476
09C03-4T       -9.55050      3.25790     -3.72419
12A01-4P      -12.41171     -1.28479     -4.52520
12A09-5S      -12.27603     -8.90181     -4.96995
12A12-6R      -12.13973    -11.87109     -6.26112
12C09-5S      -12.27501      8.89550     -4.97245
13A21-4P      -13.08129    -20.94040     -3.90713
14A10+6S      -14.04540    -10.43866      5.64173
14A10-5S      -13.92401    -10.44142     -4.95577
14A20-4P      -14.64637    -20.69745     -4.05491
14C10+6S      -14.04008      9.83250      5.62916
14C10-5S      -13.92201      9.83837     -4.96706
15C01-6P      -15.57637      1.05087     -6.22359
16A16-6R      -15.55506    -15.66091     -6.26379
16A23+1P      -15.99540    -23.36155      1.58918
17A12-6R      -16.88778    -12.43183     -6.26063
17C09-6R      -16.85024      8.75956     -6.25469
17C12-6R      -16.84805     11.83600     -6.26126
19A03+8C      -19.22214     -2.71981      8.11542
19A03-5S      -19.19474     -2.52522     -4.80055
19A08+8C      -19.23820     -7.70097      8.10057
19A10+9P      -19.34564    -10.05024      8.50260
19A18-2S      -19.32702    -17.87377     -2.31641
19B00+9P      -19.33979     -0.03814      8.51077
19C10+8P      -19.35203      9.95587      8.49227
20A14-5P      -19.96198    -14.34952     -5.03468
20A14-5S      -19.96191    -14.34937     -5.03454
20C12-5S      -20.05252     12.33435     -4.81643
20C13-2P      -20.97655     13.37198     -2.58862
21A13+0P      -21.77465    -13.05499      0.08884
21A16-3P      -20.78265    -16.46220     -3.07013
21C09+1P      -21.40792      9.64631      1.35803
21C09-0P      -21.73097      9.47177     -0.13174
21C10+0P      -21.25302     10.08016      0.02016
22A05+1P      -21.86958     -5.10180      1.00881
22A16-0P      -21.69889    -15.60984     -0.32359
R6A5           -8.69280     -3.04823     -3.04104
R6C1           -8.69056      0.50946     -3.04184
R6C4           -8.69259      3.05947     -3.04199
R7C2           -9.13572      0.76693     -3.04201
R7C8           -9.13801      3.30998     -3.04249
R8A5           -9.25761     -3.04789     -3.04128
TEMP1         -19.04199     -1.77646     -0.25237
UX851R        -21.62440     13.91887      1.24196
UX852R        -21.62560     14.11822      1.29559
% rajouter le 08/12/2016 see LHCb\Infrastructure\2016_12_08_IMP_C02_pipe_brackets
19A19+8P   -19.36933   -19.30869   8.45808
R5   -2.88936   -36.99701   8.22838
R6   -2.92670   -39.39860   8.28545
R7   -2.83177   -42.38669   8.15778
R4   -2.68865   -36.36582   7.96901
R3   -3.93090   -30.65395   6.85374
R2   -18.51150   -30.61882   6.93010
R1   -19.86594   -36.24675   7.83371
